{
    "456": {
        "genus": "f",
        "dekl": "a",
        "genitiv": "filiae",
        "genitiv_german": "der Tochter "
    },
    "462": {
        "genus": "f",
        "dekl": "a",
        "genitiv": "puellae",
        "genitiv_german": "des M\u00e4dchens"
    },
    "464": {
        "genus": "f",
        "dekl": "a",
        "genitiv": "curae",
        "genitiv_german": "der Sorge, der Pflege "
    },
    "468": {
        "genus": "f",
        "dekl": "a",
        "genitiv": "aurae",
        "genitiv_german": "der Luft, der Gunst "
    },
    "476": {
        "genus": "f",
        "dekl": "a",
        "genitiv": "villae",
        "genitiv_german": "der Villa, des Landhauses "
    },
    "482": {
        "genus": "f",
        "dekl": "a",
        "genitiv": "insluae",
        "genitiv_german": "der Insel, des Wohnblocks "
    },
    "484": {
        "genus": "f",
        "dekl": "a",
        "genitiv": "copiae",
        "genitiv_german": "der Menge, des Vorrats "
    },
    "490": {
        "genus": "f",
        "dekl": "a",
        "genitiv": "aquae",
        "genitiv_german": "des Wassers "
    },
    "532": {
        "genus": "f",
        "dekl": "a",
        "genitiv": "deae",
        "genitiv_german": "der G\u00f6ttin "
    },
    "570": {
        "genus": "f",
        "dekl": "a",
        "genitiv": "gratiae",
        "genitiv_german": "des Ansehens, der Beliebtheit, des Dankes "
    },
    "576": {
        "genus": "f",
        "dekl": "a",
        "genitiv": "lacrimae",
        "genitiv_german": "der Tr\u00e4ne "
    },
    "638": {
        "genus": "f",
        "dekl": "a",
        "genitiv": "irae",
        "genitiv_german": "des Zorns, der Wut "
    },
    "664": {
        "genus": "f",
        "dekl": "a",
        "genitiv": "ripae",
        "genitiv_german": "des Ufers "
    },
    "688": {
        "genus": "f",
        "dekl": "a",
        "genitiv": "patriae",
        "genitiv_german": "der Heimat "
    },
    "712": {
        "genus": "f",
        "dekl": "a",
        "genitiv": "famae",
        "genitiv_german": "des "
    },
    "454": {
        "genus": "m",
        "dekl": "o",
        "genitiv": "filii",
        "genitiv_german": "des Sohns "
    },
    "460": {
        "genus": "m",
        "dekl": "o",
        "genitiv": "pueri",
        "genitiv_german": "des Jungen "
    },
    "474": {
        "genus": "m",
        "dekl": "o",
        "genitiv": "dei",
        "genitiv_german": "des Gottes, der Gottheit "
    },
    "480": {
        "genus": "m",
        "dekl": "o",
        "genitiv": "agri",
        "genitiv_german": "des Ackers, des Felds, des Gebiets "
    },
    "486": {
        "genus": "m",
        "dekl": "o",
        "genitiv": "viri",
        "genitiv_german": "des Mannes "
    },
    "612": {
        "genus": "m",
        "dekl": "o",
        "genitiv": "muri",
        "genitiv_german": "der Mauer "
    },
    "662": {
        "genus": "m",
        "dekl": "o",
        "genitiv": "circi",
        "genitiv_german": "des Zirkus, der Rennbahn "
    },
    "693": {
        "genus": "m",
        "dekl": "o",
        "genitiv": "avi",
        "genitiv_german": "des Gro\u00dfvaters "
    },
    "472": {
        "genus": "n",
        "dekl": "o",
        "genitiv": "templi",
        "genitiv_german": "des Tempels "
    },
    "568": {
        "genus": "n",
        "dekl": "o",
        "genitiv": "signi",
        "genitiv_german": "des Zeichens, des Merkmals "
    },
    "602": {
        "genus": "n",
        "dekl": "o",
        "genitiv": "sacri",
        "genitiv_german": "des Opfers, des Heiligtums "
    },
    "608": {
        "genus": "n",
        "dekl": "o",
        "genitiv": "periculi",
        "genitiv_german": "der Gefahr "
    },
    "690": {
        "genus": "n",
        "dekl": "o",
        "genitiv": "proelii",
        "genitiv_german": "des Kampfes, der Schlacht "
    },
    "458": {
        "genus": "m",
        "dekl": "kons",
        "genitiv": "patris",
        "genitiv_german": "des Vaters "
    },
    "506": {
        "genus": "m",
        "dekl": "kons",
        "genitiv": "solis",
        "genitiv_german": "der Sonne "
    },
    "515": {
        "genus": "m",
        "dekl": "kons",
        "genitiv": "adulescentis",
        "genitiv_german": "des jungen Mannes "
    },
    "517": {
        "genus": "f",
        "dekl": "kons",
        "genitiv": "partis",
        "genitiv_german": "des Teils, der Seite, der Richtung ",
        "genitiv_plural": "-ium"
    },
    "530": {
        "genus": "f",
        "dekl": "kons",
        "genitiv": "matris",
        "genitiv_german": "der Mutter "
    },
    "543": {
        "genus": "m",
        "dekl": "kons",
        "genitiv": "senis",
        "genitiv_german": "des Greisses, des alten Mannes "
    },
    "562": {
        "genus": "f",
        "dekl": "kons",
        "genitiv": "gentis",
        "genitiv_german": "des Stammes, der Familie, des Volks ",
        "genitiv_plural": "-ium"
    },
    "589": {
        "genus": "f",
        "dekl": "kons",
        "genitiv": "comitis",
        "genitiv_german": "des "
    },
    "591": {
        "genus": "f",
        "dekl": "kons",
        "genitiv": "multitudinis",
        "genitiv_german": "der Menge, der gro\u00dfen Zahl "
    },
    "596": {
        "genus": "f",
        "dekl": "kons",
        "genitiv": "orationis",
        "genitiv_german": "der Rede "
    },
    "598": {
        "genus": "n",
        "dekl": "kons",
        "genitiv": "iternis",
        "genitiv_german": "der Reise, des Wegs, des Marches "
    },
    "604": {
        "genus": "n",
        "dekl": "kons",
        "genitiv": "muneris",
        "genitiv_german": "der Aufgabe, des Geschenks "
    },
    "610": {
        "genus": "f",
        "dekl": "kons",
        "genitiv": "urbis",
        "genitiv_german": "der Stadt, der Hauptstadt ",
        "genitiv_plural": "-ium"
    },
    "623": {
        "genus": "m",
        "dekl": "kons",
        "genitiv": "hostis",
        "genitiv_german": "des Feinds, des Landesfeinds ",
        "genitiv_plural": "-ium"
    },
    "625": {
        "genus": "n",
        "dekl": "kons",
        "genitiv": "agminis",
        "genitiv_german": "des Heers, des Feldzugs "
    },
    "640": {
        "genus": "m",
        "dekl": "kons",
        "genitiv": "fratris",
        "genitiv_german": "des Bruders "
    },
    "666": {
        "genus": "m",
        "dekl": "kons",
        "genitiv": "pontis",
        "genitiv_german": "der Br\u00fccke "
    },
    "677": {
        "genus": "n",
        "dekl": "kons",
        "genitiv": "fluminis",
        "genitiv_german": "des Flusses "
    },
    "694": {
        "genus": "n",
        "dekl": "kons",
        "genitiv": "itineris",
        "genitiv_german": "des Wegs, der Reise "
    },
    "698": {
        "genus": "f",
        "dekl": "kons",
        "genitiv": "vocis",
        "genitiv_german": "der Stimme, der \u00c4u\u00dferung, des Lauts "
    },
    "710": {
        "genus": "n",
        "dekl": "kons",
        "genitiv": "vulneris",
        "genitiv_german": "der Wunde, des "
    }
}
